[
    {
        "title": "El33t",
        "author": "Nate",
        "id": "el33t",
        "description": "<p>|=|/-(+{/-||`/(+/-//[-/2$!||(#/-'|'?}</p>",
        "flagSalt": "G*#miA6*Ka9Pbja^WfWnFQ*!hjB6%z23",
        "flagHash": "952c1e88c5030cebf5bc20d0a0e58c455b3238d603c0f23a4b554b8ea85f79f725ecae8f4fcb388465f4f7bb5c9cc785e1d688daf32cfd9d97181429df7f17fb"
    },
    {
        "title": "golden snitch",
        "author": "Andy",
        "id": "golden_snitch",
        "description": "<p>terry has not completed his homework, so barry decided to snitch on him.<br/>but the teacher decided that if terry completes a ctf problem, he still gets an A in the class.<br/>Given a set of points (x, y) where x, y∈ℤ<br/>find the max number of points that are on the same line<br/>for example: given {(1, 1,), (4, 2), (6, 5), (2, 4), (3, 7)}<br/>the points (1, 1), (2, 4), and (3, 7) are on the same line so the answer should be 3</p><p>the teacher says that the problem only requires some basic algebruh and coding.<br/>can you help terry solve this problem?</p>",
        "files": ["points.txt"],
        "flagSalt": "xeN*@MCXV$%LW2naB^q2yywu7dQ&!EJ#",
        "flagHash": "?"
    },
    {
        "title": "networking",
        "author": "Andy",
        "id": "networking",
        "description": "<p>terry has just been accepted into harvard university! But he is actually a terrible student <s>and got in because his dad donated a building</s>. So instead of studying, he decides to do some networking <s>with the rich and famous people at harvard</s>.<br/>we say that person A and person B are friends if:<ul><li>they are directly friends with each other</li><li>or they are interconnected by other friends</li></ul><br/>for example, if terry makes friends with barry and barry makes friends with jerry and jerry makes friends with garry, then terry is also a friend with garry<br/>the first file is a list in the format: (name, name) denoting direct relationships<br/>after terry makes friends and builds his network, <s>he obviously has to use them for some purpose.</s><br/>in the second file, there's a list of names. output whether he is indeed friends with the person.</p>",
        "files": ["connections.txt", "query.txt"],
        "flagSalt": "3vmTgpfCbUTr4wUhjs!xf#VNwQS^CsQ4",
        "flagHash": "?"
    },
    {
        "title": "Mission Quite Possible",
        "author": "Nate",
        "id": "mission_quite_possible",
        "description": "<p>Alpha team has been deployed to rescue the flag, they will be relaying back to HQ.</p>",
        "files": ["Mission.jar"],
        "flagSalt": "aZsicmdBqY$%ZJKt#9a%P!%8$T&itLWe",
        "flagHash": "c622bbb04e144cca46eb3b87da7abbdc53edba74203ea274d0d254286e5dc598be98a5d780fbcca6befeb73842253c02ac3d9febaf80967f2d89788bf3f43f9f"
    },
    {
        "title": "big brain",
        "author": "Andy",
        "id": "big_brain",
        "description": "<p>terry has a pretty smol brain, but he heard from a ted talk that he can train his brain muscles to make it bigger, so decides to challenge himself with a ctf problem:<br/>given a looooooong list of integers, find the biggest prime number<br/>terry is having trouble with the problem, can you help him?</p>",
        "files": ["numbers.txt"],
        "flagSalt": "gjcp6VshQbrkcK&4@@n@Zv3%URir$EK2",
        "flagHash": "?"
    },
    {
        "title": "christmas present",
        "author": "Andy",
        "id": "christmas_present",
        "description": "<p>it's christmas, and terry has received several presents from grandmother, such as sweaters and socks. But his friends know that he's trying to get better at math, so they decided to gift him some monotonically increasing functions (functions that only increases). But terry, being an over-analyzer, wants to know when these functions reach zero, otherwise he will not be able to sleep.<br/>can you help him?<br/>the answer should be rounded to the nearest whole number<br/>functions are given in python code (so try using python) in this format:<code><pre>def FUNCTION_NAME(x):\n\treturn VALUE_OF_FUNCTION_AT_X</pre></code></p>",
        "files": ["functions.txt"],
        "flagSalt": "$KvZKVUF!AWfy3SYTEG$q$S^ezG8!juu",
        "flagHash": "?"
    },
    {
        "title": "DNA decipher",
        "author": "Andy",
        "id": "dna_decipher",
        "description": "<p>Terry doesn't want to do his homework, so he decided to make a clone of himself, but after extracting his DNA, he accidentally lost it amongus strains of monkey DNA. He still remembers a subsequence of it though.<br/>Help him find his strain!<br/>input: a file containing the subsequence that he remembers, and a file with DNA sequences on each line<br/>Note: it's guaranteed that this subsequence will only match with one of the sequences.</p>",
        "files": ["subsequence.txt", "DNAs.txt"],
        "flagSalt": "4cX*^Ryt#wbT&b8AqzkhQ@YDpL!RMr#g",
        "flagHash": "?"
    }
]